Random Effects in Fisheries Integrated Modeling System (FIMS): Architecture, implementation, and future development
…
---
# Recruitment Deviations are random effects by default

``` r
default_parameters |> 
  tidyr::unnest(cols = data) |>
  dplyr::filter(
    label == "log_devs"
  ) 
```

```
## # A tibble: 29 × 12
##    model_family module_name fleet_name module_type  label      age length  time value estimation_type distribution_type distribution
##    <chr>        <chr>       <chr>      <chr>        <chr>    <dbl>  <dbl> <dbl> <dbl> <chr>           <chr>             <chr>       
##  1 catch_at_age Recruitment <NA>       BevertonHolt log_devs    NA     NA     2     0 random_effects  process           Dnorm       
##  2 catch_at_age Recruitment <NA>       BevertonHolt log_devs    NA     NA     3     0 random_effects  process           Dnorm       
##  3 catch_at_age Recruitment <NA>       BevertonHolt log_devs    NA     NA     4     0 random_effects  process           Dnorm       
##  4 catch_at_age Recruitment <NA>       BevertonHolt log_devs    NA     NA     5     0 random_effects  process           Dnorm       
##  5 catch_at_age Recruitment <NA>       BevertonHolt log_devs    NA     NA     6     0 random_effects  process           Dnorm       
##  6 catch_at_age Recruitment <NA>       BevertonHolt log_devs    NA     NA     7     0 random_effects  process           Dnorm       
##  7 catch_at_age Recruitment <NA>       BevertonHolt log_devs    NA     NA     8     0 random_effects  process           Dnorm       
##  8 catch_at_age Recruitment <NA>       BevertonHolt log_devs    NA     NA     9     0 random_effects  process           Dnorm       
##  9 catch_at_age Recruitment <NA>       BevertonHolt log_devs    NA     NA    10     0 random_effects  process           Dnorm       
## 10 catch_at_age Recruitment <NA>       BevertonHolt log_devs    NA     NA    11     0 random_effects  process           Dnorm       
## # ℹ 19 more rows
```
…
